…
    ## `summarise()` has grouped output by 'name'. You can override using the
    ## `.groups` argument.

``` r
lost_friends_demos
```

    ## # A tibble: 31 × 6
    ## # Groups:   name [10]
    ##    name      value               se lost_friends     N demo                
    ##    <chr>     <chr>            <dbl>        <dbl> <int> <chr>               
    ##  1 age_range 18-24           0.0356       0.154    104 age_range—18-24     
    ##  2 age_range 25-34           0.0308       0.207    174 age_range—25-34     
    ##  3 age_range 35-44           0.0208       0.124    251 age_range—35-44     
    ##  4 age_range 45-54           0.0280       0.141    156 age_range—45-54     
    ##  5 age_range 55-64           0.0286       0.129    139 age_range—55-64     
    ##  6 age_range 65+             0.0227       0.0952   168 age_range—65+       
    ##  7 civil_war No              0.0132       0.125    624 civil_war—No        
    ##  8 civil_war Yes             0.0220       0.184    310 civil_war—Yes       
    ##  9 educ      College degree  0.0216       0.160    288 educ—College degree 
    ## 10 educ      Graduate degree 0.0238       0.143    217 educ—Graduate degree
    ## # … with 21 more rows
…
    ## `summarise()` has grouped output by 'name'. You can override using the
    ## `.groups` argument.

``` r
civil_war_demos
```

    ## # A tibble: 31 × 6
    ## # Groups:   name [10]
    ##    name      value               se civil_war     N demo                
    ##    <chr>     <fct>            <dbl>     <dbl> <int> <chr>               
    ##  1 age_range 18-24           0.0483     0.347    98 age_range—18-24     
    ##  2 age_range 25-34           0.0371     0.349   166 age_range—25-34     
    ##  3 age_range 35-44           0.0308     0.340   238 age_range—35-44     
    ##  4 age_range 45-54           0.0386     0.324   148 age_range—45-54     
    ##  5 age_range 55-64           0.0404     0.311   132 age_range—55-64     
    ##  6 age_range 65+             0.0377     0.323   155 age_range—65+       
    ##  7 educ      College degree  0.0271     0.273   271 educ—College degree 
    ##  8 educ      Graduate degree 0.0257     0.161   205 educ—Graduate degree
    ##  9 educ      High school     0.0351     0.515   204 educ—High school    
    ## 10 educ      Some college    0.0321     0.395   233 educ—Some college   
    ## # … with 21 more rows
…
